﻿{
  "name": "Trees",
  "entities": [
    {
      "name": "GreenTree",
      "snapToGrid": true,
      "assetName": "Tiles/trees-green",
      "spriteWidth": 3,
      "spriteHeight": 4,
      "activities": [ { "name": "Animate" } ],
      "tiles": [
        [ null, null, null ],
        [ null, null, null ],
        [ null, "Grass/BlockingGrass", null ],
        [ "Grass/BlockingGrass", "Grass/BlockingGrass", "Grass/BlockingGrass" ]
      ],
      "stateframes": {
        "Animate": [
          {
            "id": 100,
            "delay": 20
          },
          { "id": -1 }
        ]
      }
    }
  ]
}